constituency,nd,kke,syriza,kinal,elliniki,mera25
Achaea,4,1,3,1,0,0
Aitoloakarnania,3,1,2,1,0,0
Arcadia,1,0,1,1,0,0
Argolida,1,0,1,1,0,0
Arta,1,0,1,1,0,0
Athens A,7,1,4,1,0,1
Athens B1 (North),7,1,4,1,1,1
Athens B2 (West),3,1,4,1,1,1
Athens B3 (South),9,1,5,1,1,1
Boeotia,1,0,1,1,0,0
Chalkidiki,1,0,1,1,0,0
Chania,3,0,1,0,0,0
Chios,1,0,1,0,0,0
Corfu,1,0,1,1,0,0
Corinthia,3,0,1,0,0,0
Cyclades,3,0,1,0,0,0
Dodecanese,4,0,1,0,0,0
Drama,1,0,1,1,0,0
East Attica,4,1,3,0,1,1
Euboea,3,1,2,0,0,0
Evros,3,0,1,0,0,0
Evrytania,1,0,0,0,0,0
Florina,1,0,1,0,0,0
Fokida,1,0,0,0,0,0
Fthiotida,4,0,1,0,0,0
Grevena,1,0,0,0,0,0
Heraklion,2,1,3,1,0,1
Ilia,3,0,1,1,0,0
Imathia,3,0,1,0,0,0
Ioannina,4,0,1,0,0,0
Karditsa,3,0,1,0,0,0
Kastoria,1,0,1,0,0,0
Kavala,3,0,1,0,0,0
Kefallonia,1,0,0,0,0,0
Kilkis,1,0,1,1,0,0
Kozani,4,0,1,0,0,0
Laconia,2,0,1,0,0,0
Larissa,3,1,2,1,1,0
Lasithi,1,0,1,0,0,0
Lefkada,1,0,0,0,0,0
Lesvos,1,1,1,0,0,0
Magnisia,4,0,2,0,0,0
Messinia,4,0,1,0,0,0
Pella,3,0,1,0,0,0
Pieria,3,0,1,0,0,0
Piraeus A,5,0,1,0,0,0
Piraeus B,2,1,3,0,1,1
Preveza,1,0,1,0,0,0
Rethymno,1,0,1,0,0,0
Rodopi,1,0,1,1,0,0
Samos,1,0,0,0,0,0
Serres,4,0,1,0,1,0
Thesprotia,1,0,1,0,0,0
Thessaloniki A,7,1,5,1,1,1
Thessaloniki B,3,1,2,1,1,1
Trikala,3,0,1,0,0,0
West Attica,3,0,1,0,0,0
Xanthi,1,0,1,1,0,0
Zakynthos,1,0,0,0,0,0
Greece,158,15,86,22,10,9
